…
``` r
sim_results_df =
  expand_grid(
    iter = 1:100,
    sample_size = 30
  ) %>% 
  mutate(
    results = map(sample_size, sim_mean_sd)
  ) %>% 
  unnest(results)

sim_results_df
```

    ## # A tibble: 100 × 4
    ##     iter sample_size mu_hat sigma_hat
    ##    <int>       <dbl>  <dbl>     <dbl>
    ##  1     1          30   3.04      1.69
    ##  2     2          30   3.08      1.84
    ##  3     3          30   3.22      2.13
    ##  4     4          30   2.84      2.03
    ##  5     5          30   2.99      1.56
    ##  6     6          30   2.85      1.94
    ##  7     7          30   3.61      2.08
    ##  8     8          30   3.40      2.53
    ##  9     9          30   2.44      1.53
    ## 10    10          30   2.92      2.24
    ## # ℹ 90 more rows
``` r
sim_results_df =
  expand_grid(
    iter = 1:1000,
    sample_size = c(30, 60, 90, 120)
  ) %>% 
  mutate(
    results = map(sample_size, sim_mean_sd)
  ) %>% 
  unnest(results)

sim_results_df
```

    ## # A tibble: 4,000 × 4
    ##     iter sample_size mu_hat sigma_hat
    ##    <int>       <dbl>  <dbl>     <dbl>
    ##  1     1          30   2.89      1.65
    ##  2     1          60   3.24      1.94
    ##  3     1          90   3.04      2.11
    ##  4     1         120   3.00      1.84
    ##  5     2          30   3.50      2.14
    ##  6     2          60   3.37      2.22
    ##  7     2          90   2.77      1.85
    ##  8     2         120   2.69      2.02
    ##  9     3          30   2.75      2.05
    ## 10     3          60   2.31      1.87
    ## # ℹ 3,990 more rows
…
``` r
output = vector("list", length = 500)

for (i in 1:500) {
  
  output[[i]] = sim_reg(n_subj = 30 )
}

output %>% 
  bind_rows()
```

    ## # A tibble: 500 × 2
    ##    beta0_hat beta1_hat
    ##        <dbl>     <dbl>
    ##  1      1.65      3.09
    ##  2      1.77      3.56
    ##  3      1.51      3.48
    ##  4      2.31      2.80
    ##  5      2.00      2.95
    ##  6      1.96      2.92
    ##  7      1.62      3.44
    ##  8      2.15      2.95
    ##  9      2.02      2.87
    ## 10      1.92      3.00
    ## # ℹ 490 more rows
…
